digraph "parseTpmError"
{
 // LATEX_PDF_SIZE
  edge [fontname="Helvetica",fontsize="10",labelfontname="Helvetica",labelfontsize="10"];
  node [fontname="Helvetica",fontsize="10",shape=record];
  rankdir="RL";
  Node1 [label="parseTpmError",height=0.2,width=0.4,color="black", fillcolor="grey75", style="filled", fontcolor="black",tooltip=" "];
  Node1 -> Node2 [dir="back",color="midnightblue",fontsize="10",style="solid",fontname="Helvetica"];
  Node2 [label="createDaaKey",height=0.2,width=0.4,color="black", fillcolor="white", style="filled",URL="$_create__key_8cpp.html#a37a9ddb4672ed364247abac2e9685dde",tooltip="This function create an ECDAA-key under a fixed policy and a primary key."];
  Node2 -> Node3 [dir="back",color="midnightblue",fontsize="10",style="solid",fontname="Helvetica"];
  Node3 [label="main",height=0.2,width=0.4,color="black", fillcolor="white", style="filled",URL="$keytestmain_8cpp.html#ae66f6b31b5ad750f1fe042a706a4e3d4",tooltip=" "];
  Node1 -> Node4 [dir="back",color="midnightblue",fontsize="10",style="solid",fontname="Helvetica"];
  Node4 [label="loadExternalKey",height=0.2,width=0.4,color="black", fillcolor="white", style="filled",URL="$_create__key_8cpp.html#a023081b592e7dd862d19d9528ca28db7",tooltip="This function loads an external key into the TPM."];
  Node1 -> Node5 [dir="back",color="midnightblue",fontsize="10",style="solid",fontname="Helvetica"];
  Node5 [label="loadKey",height=0.2,width=0.4,color="black", fillcolor="white", style="filled",URL="$_create__key_8cpp.html#a5ddbd8f273116d0c6eae9ddf93a4b6f0",tooltip="This function loads a child key into the TPM. Note: a create key functions does not use the load func..."];
  Node5 -> Node3 [dir="back",color="midnightblue",fontsize="10",style="solid",fontname="Helvetica"];
  Node1 -> Node6 [dir="back",color="midnightblue",fontsize="10",style="solid",fontname="Helvetica"];
  Node6 [label="makeKeyPersistent",height=0.2,width=0.4,color="black", fillcolor="white", style="filled",URL="$_create__key_8cpp.html#af59d1a2c7b77983db801a71537c9c8b3",tooltip="This function writes a key in the NV memory, i.e. persisten key."];
  Node6 -> Node7 [dir="back",color="midnightblue",fontsize="10",style="solid",fontname="Helvetica"];
  Node7 [label="deletePersistentKey",height=0.2,width=0.4,color="black", fillcolor="white", style="filled",URL="$_create__key_8cpp.html#a1f0cb88155956cadf261ea68749cb992",tooltip="This function deletes a key from the NV memory."];
  Node7 -> Node3 [dir="back",color="midnightblue",fontsize="10",style="solid",fontname="Helvetica"];
  Node6 -> Node3 [dir="back",color="midnightblue",fontsize="10",style="solid",fontname="Helvetica"];
}
