digraph "createDaaKey"
{
 // LATEX_PDF_SIZE
  edge [fontname="Helvetica",fontsize="10",labelfontname="Helvetica",labelfontsize="10"];
  node [fontname="Helvetica",fontsize="10",shape=record];
  rankdir="LR";
  Node1 [label="createDaaKey",height=0.2,width=0.4,color="black", fillcolor="grey75", style="filled", fontcolor="black",tooltip="This function create an ECDAA-key under a fixed policy and a primary key."];
  Node1 -> Node2 [color="midnightblue",fontsize="10",style="solid",fontname="Helvetica"];
  Node2 [label="parseTpmError",height=0.2,width=0.4,color="black", fillcolor="white", style="filled",URL="$_create__key_8cpp.html#a3d5541e502949568c649e4ccbcf73ad2",tooltip=" "];
}
