digraph "loadKey"
{
 // LATEX_PDF_SIZE
  edge [fontname="Helvetica",fontsize="10",labelfontname="Helvetica",labelfontsize="10"];
  node [fontname="Helvetica",fontsize="10",shape=record];
  rankdir="LR";
  Node1 [label="loadKey",height=0.2,width=0.4,color="black", fillcolor="grey75", style="filled", fontcolor="black",tooltip="This function loads a child key into the TPM. Note: a create key functions does not use the load func..."];
  Node1 -> Node2 [color="midnightblue",fontsize="10",style="solid"];
  Node2 [label="parseTpmError",height=0.2,width=0.4,color="black", fillcolor="white", style="filled",URL="$_create__key_8cpp.html#a3d5541e502949568c649e4ccbcf73ad2",tooltip=" "];
}
