digraph "makeKeyPersistent"
{
 // LATEX_PDF_SIZE
  edge [fontname="Helvetica",fontsize="10",labelfontname="Helvetica",labelfontsize="10"];
  node [fontname="Helvetica",fontsize="10",shape=record];
  rankdir="RL";
  Node1 [label="makeKeyPersistent",height=0.2,width=0.4,color="black", fillcolor="grey75", style="filled", fontcolor="black",tooltip="This function writes a key in the NV memory, i.e. persisten key."];
  Node1 -> Node2 [dir="back",color="midnightblue",fontsize="10",style="solid"];
  Node2 [label="deletePersistentKey",height=0.2,width=0.4,color="black", fillcolor="white", style="filled",URL="$_create__key_8cpp.html#a1f0cb88155956cadf261ea68749cb992",tooltip="This function deletes a key from the NV memory."];
  Node2 -> Node3 [dir="back",color="midnightblue",fontsize="10",style="solid"];
  Node3 [label="main",height=0.2,width=0.4,color="black", fillcolor="white", style="filled",URL="$keytestmain_8cpp.html#ae66f6b31b5ad750f1fe042a706a4e3d4",tooltip=" "];
  Node1 -> Node3 [dir="back",color="midnightblue",fontsize="10",style="solid"];
}
